{
  "type": "code",
  "modid": "chunkstaboverride",
  "name": "Chunk Stability Override",
  "authors": ["Cho"],
  "description": "Adds server commands to increase/decrease temporal stability globally or per-chunk",
  "version": "2.0.1",
  "dependencies": {
    "game": "1.20.0-rc.6"
  },
  "side": "Server"
}
